Import and Manipulate ForestGEO Data • fgeo.tool
…
example_path() allows you to access datasets stored in your R libraries.

example_path()
#>  [1] "csv"           "mixed_files"   "rdata"         "rdata_one"    
#>  [5] "rds"           "taxa.csv"      "tsv"           "vft_4quad.csv"
#>  [9] "view"          "weird"         "xl"

(vft_file <- example_path("view/vft_4quad.csv"))
#> [1] "/home/mauro/R/x86_64-pc-linux-gnu-library/3.6/fgeo.x/extdata/view/vft_4quad.csv"

read_vft() and read_taxa() import a ViewFullTable and ViewTaxonomy from .tsv or .csv files.

read_vft(vft_file)
#> # A tibble: 500 x 32
#>     DBHID PlotName PlotID Family Genus SpeciesName Mnemonic Subspecies SpeciesID
#>     <int> <chr>     <int> <chr>  <chr> <chr>       <chr>    <chr>          <int>
#>  1 385164 luquillo      1 Rubia… Psyc… brachiata   PSYBRA   <NA>             185
#>  2 385261 luquillo      1 Urtic… Cecr… schreberia… CECSCH   <NA>              74
#>  3 384600 luquillo      1 Rubia… Psyc… brachiata   PSYBRA   <NA>             185
#>  4 608789 luquillo      1 Rubia… Psyc… berteroana  PSYBER   <NA>             184
#>  5 388579 luquillo      1 Areca… Pres… acuminata   PREMON   <NA>             182
#>  6 384626 luquillo      1 Arali… Sche… morototoni  SCHMOR   <NA>             196
#>  7 410958 luquillo      1 Rubia… Psyc… brachiata   PSYBRA   <NA>             185
#>  8 385102 luquillo      1 Piper… Piper glabrescens PIPGLA   <NA>             174
#>  9 353163 luquillo      1 Areca… Pres… acuminata   PREMON   <NA>             182
#> 10 481018 luquillo      1 Salic… Case… arborea     CASARB   <NA>              70
#> # … with 490 more rows, and 23 more variables: SubspeciesID <chr>,
#> #   QuadratName <chr>, QuadratID <int>, PX <dbl>, PY <dbl>, QX <dbl>, QY <dbl>,
#> #   TreeID <int>, Tag <chr>, StemID <int>, StemNumber <int>, StemTag <int>,
#> #   PrimaryStem <chr>, CensusID <int>, PlotCensusNumber <int>, DBH <dbl>,
#> #   HOM <dbl>, ExactDate <date>, Date <int>, ListOfTSM <chr>, HighHOM <int>,
#> #   LargeStem <chr>, Status <chr>
…
dim(stem)
#> [1] 1320   19
dim(pick_main_stem(stem))
#> Warning: The `add` argument of `group_by()` is deprecated as of dplyr 1.0.0.
#> Please use the `.add` argument instead.
#> This warning is displayed once every 8 hours.
#> Call `lifecycle::last_warnings()` to see where this warning was generated.
#> [1] 1000   19

add_status_tree() adds the column status_tree based on the status of all stems of each tree.

stem %>% 
  select(CensusID, treeID, stemID, status) %>% 
  add_status_tree()
#> # A tibble: 1,320 x 5
#>    CensusID treeID stemID status status_tree
#>       <int>  <int>  <int> <chr>  <chr>      
#>  1        6    104    143 A      A          
#>  2        6    119    158 A      A          
#>  3       NA    180    222 G      A          
#>  4       NA    180    223 G      A          
#>  5        6    180    224 G      A          
#>  6        6    180    225 A      A          
#>  7        6    602    736 A      A          
#>  8        6    631    775 A      A          
#>  9        6    647    793 A      A          
#> 10        6   1086   1339 A      A          
#> # … with 1,310 more rows

add_index() and friends add columns to a ForestGEO-like dataframe.

stem %>% 
  select(gx, gy) %>% 
  add_index()
#> Guessing: plotdim = c(320, 500)
#> * If guess is wrong, provide the correct argument `plotdim`
#> # A tibble: 1,320 x 3
#>       gx    gy index
#>    <dbl> <dbl> <dbl>
#>  1  10.3  245.    13
#>  2 183.   410.   246
#>  3 165.   410.   221
#>  4 165.   410.   221
#>  5 165.   410.   221
#>  6 165.   410.   221
#>  7 149.   414.   196
#>  8  38.3  245.    38
#>  9 143.   411.   196
#> 10  68.9  253.    88
#> # … with 1,310 more rows
…
