…
(vft_file <- example_path("view/vft_4quad.csv"))
#> [1] "/usr/local/lib/R/site-library/fgeo.x/extdata/view/vft_4quad.csv"
```

`read_vft()` and `read_taxa()` import a ViewFullTable and ViewTaxonomy
from .tsv or .csv files.

``` r
read_vft(vft_file)
#> # A tibble: 500 × 32
#>     DBHID PlotName PlotID Family   Genus Speci…¹ Mnemo…² Subsp…³ Speci…⁴ Subsp…⁵
#>     <int> <chr>     <int> <chr>    <chr> <chr>   <chr>   <chr>     <int> <chr>  
#>  1 385164 luquillo      1 Rubiace… Psyc… brachi… PSYBRA  <NA>        185 <NA>   
#>  2 385261 luquillo      1 Urticac… Cecr… schreb… CECSCH  <NA>         74 <NA>   
#>  3 384600 luquillo      1 Rubiace… Psyc… brachi… PSYBRA  <NA>        185 <NA>   
#>  4 608789 luquillo      1 Rubiace… Psyc… berter… PSYBER  <NA>        184 <NA>   
#>  5 388579 luquillo      1 Arecace… Pres… acumin… PREMON  <NA>        182 <NA>   
#>  6 384626 luquillo      1 Araliac… Sche… moroto… SCHMOR  <NA>        196 <NA>   
#>  7 410958 luquillo      1 Rubiace… Psyc… brachi… PSYBRA  <NA>        185 <NA>   
#>  8 385102 luquillo      1 Piperac… Piper glabre… PIPGLA  <NA>        174 <NA>   
#>  9 353163 luquillo      1 Arecace… Pres… acumin… PREMON  <NA>        182 <NA>   
#> 10 481018 luquillo      1 Salicac… Case… arborea CASARB  <NA>         70 <NA>   
#> # … with 490 more rows, 22 more variables: QuadratName <chr>, QuadratID <int>,
#> #   PX <dbl>, PY <dbl>, QX <dbl>, QY <dbl>, TreeID <int>, Tag <chr>,
#> #   StemID <int>, StemNumber <int>, StemTag <int>, PrimaryStem <chr>,
#> #   CensusID <int>, PlotCensusNumber <int>, DBH <dbl>, HOM <dbl>,
#> #   ExactDate <date>, Date <int>, ListOfTSM <chr>, HighHOM <int>,
#> #   LargeStem <chr>, Status <chr>, and abbreviated variable names ¹​SpeciesName,
#> #   ²​Mnemonic, ³​Subspecies, ⁴​SpeciesID, ⁵​SubspeciesID
#> # ℹ Use `print(n = ...)` to see more rows, and `colnames()` to see all variable names
```
…
`add_status_tree()` adds the column status_tree based on the status of
all stems of each tree.

``` r
stem %>% 
  select(CensusID, treeID, stemID, status) %>% 
  add_status_tree()
#> # A tibble: 1,320 × 5
#>    CensusID treeID stemID status status_tree
#>       <int>  <int>  <int> <chr>  <chr>      
#>  1        6    104    143 A      A          
#>  2        6    119    158 A      A          
#>  3       NA    180    222 G      A          
#>  4       NA    180    223 G      A          
#>  5        6    180    224 G      A          
#>  6        6    180    225 A      A          
#>  7        6    602    736 A      A          
#>  8        6    631    775 A      A          
#>  9        6    647    793 A      A          
#> 10        6   1086   1339 A      A          
#> # … with 1,310 more rows
#> # ℹ Use `print(n = ...)` to see more rows
```

`add_index()` and friends add columns to a ForestGEO-like dataframe.

``` r
stem %>% 
  select(gx, gy) %>% 
  add_index()
#> Guessing: plotdim = c(320, 500)
#> * If guess is wrong, provide the correct argument `plotdim`
#> # A tibble: 1,320 × 3
#>       gx    gy index
#>    <dbl> <dbl> <dbl>
#>  1  10.3  245.    13
#>  2 183.   410.   246
#>  3 165.   410.   221
#>  4 165.   410.   221
#>  5 165.   410.   221
#>  6 165.   410.   221
#>  7 149.   414.   196
#>  8  38.3  245.    38
#>  9 143.   411.   196
#> 10  68.9  253.    88
#> # … with 1,310 more rows
#> # ℹ Use `print(n = ...)` to see more rows
```
…
