…
# Output `gx` and `gy` ---------------

add_gxgy(x)
#> # A tibble: 4 x 3
#>   QuadratName    gx    gy
#>   <chr>       <dbl> <dbl>
#> 1 0001            0    20
#> 2 0011            0   220
#> 3 0101           20    20
#> 4 1001          200    20

# Warning: The data may already have `gx` and `gx` columns
gxgy <- add_gxgy(fgeo.x::tree5)
select(gxgy, matches("gx|gy"))
#> # A tibble: 30 x 4
#>       gx    gy   gx1   gy1
#>    <dbl> <dbl> <dbl> <dbl>
#>  1 139.  425.    140   440
#>  2  94.8 424.    100   440
#>  3  61.3 496.     80   500
#>  4 100.  328.    120   340
#>  5  53.8  73.8    60    80
#>  6 203.  110.    220   120
#>  7 172.   14.7   180    20
#>  8 184.  194.    200   200
#>  9 191.  132.    200   140
#> 10 274.  279.    280   280
#> # ... with 20 more rows
…
