Construct habitat data. — fgeo_habitat • fgeo.tool
…
# Input: Object of class fgeo_elev
fgeo_elev <- fgeo_elevation(fgeo.data::luquillo_elevation)
hab3 <- fgeo_habitat(elev_df, gridsize = 20, n = 4, xdim = 320, ydim = 500)
str(hab3)
#> Classes ‘fgeo_habitat’, ‘tbl_df’, ‘tbl’ and 'data.frame':	6400 obs. of  3 variables:
#>  $ gx      : int  0 0 0 0 0 0 0 0 0 0 ...
#>  $ gy      : int  0 5 10 15 20 25 30 35 40 45 ...
#>  $ habitats: int  1 1 1 1 1 1 1 1 1 1 ...

identical(hab1, hab2)
#> [1] TRUE
identical(hab2, hab3)
#> [1] TRUE
hab1
#> # A tibble: 6,400 x 3
#>       gx    gy habitats
#>  * <int> <int>    <int>
#>  1     0     0        1
#>  2     0     5        1
#>  3     0    10        1
#>  4     0    15        1
#>  5     0    20        1
#>  6     0    25        1
#>  7     0    30        1
#>  8     0    35        1
#>  9     0    40        1
#> 10     0    45        1
#> # ... with 6,390 more rows
…
