Calculate mean elevation, convexity and slope. — fgeo_topography • fgeo.tool
…
    See also

    fgeo_habitat().

Other functions to construct fgeo classes.: fgeo_elevation,
  fgeo_habitat

    Examples

elev_list <- fgeo.data::luquillo_elevation
fgeo_topography(elev_list, gridsize = 20)
#> # A tibble: 400 x 5
#>       gx    gy meanelev convex slope
#>  * <dbl> <dbl>    <dbl>  <dbl> <dbl>
#>  1     0     0     365. -0.390  8.87
#>  2     0    20     365. -0.285 13.7 
#>  3     0    40     367.  0.210 14.4 
#>  4     0    60     367.  0.34  15.9 
#>  5     0    80     362. -0.255 20.8 
#>  6     0   100     358. -0.510 12.4 
#>  7     0   120     359. -0.28  17.1 
#>  8     0   140     360. -0.265 22.1 
#>  9     0   160     362.  0.055 24.3 
#> 10     0   180     364.  0.415 15.2 
#> # ... with 390 more rows

elev_df <- elev_list$col
fgeo_topography(elev_df, gridsize = 20, xdim = 320, ydim = 500)
#> # A tibble: 400 x 5
#>       gx    gy meanelev convex slope
#>  * <dbl> <dbl>    <dbl>  <dbl> <dbl>
#>  1     0     0     365. -0.390  8.87
#>  2     0    20     365. -0.285 13.7 
#>  3     0    40     367.  0.210 14.4 
#>  4     0    60     367.  0.34  15.9 
#>  5     0    80     362. -0.255 20.8 
#>  6     0   100     358. -0.510 12.4 
#>  7     0   120     359. -0.28  17.1 
#>  8     0   140     360. -0.265 22.1 
#>  9     0   160     362.  0.055 24.3 
#> 10     0   180     364.  0.415 15.2 
#> # ... with 390 more rows
…
