Filter a (fgeo) dataframe by the status of each stem or tree. — filter_status • fgeo.tool
…
result <- filter_status(x, wood = "tree", .status = "D", exclude = TRUE)
table(result$status_tree)
#> 
#>    A 
#> 1809 

# Shortcut
result <- drop_dead_tree(x)
result %>%
  dplyr::arrange(tag, stemID, status) %>%
  dplyr::select(tag, stemID, status, status_tree)
#> # A tibble: 1,809 x 4
#>    tag    stemID status status_tree
#>    <chr>   <int> <chr>  <chr>      
#>  1 000851      1 A      A          
#>  2 001080      1 G      A          
#>  3 001080      2 G      A          
#>  4 001080      3 G      A          
#>  5 001080      4 G      A          
#>  6 001080      5 G      A          
#>  7 001080      6 G      A          
#>  8 001080      7 G      A          
#>  9 001080      8 G      A          
#> 10 001080      9 G      A          
#> # ... with 1,799 more rows
…
result <- filter_status(x, wood = "tree", .status = "alive")
table(result$status_tree)
#> 
#> alive 
#>  3853 

# Shortcut
unique(x$Status)
#> [1] "alive" "dead" 
result <- drop_dead_tree(x, "dead")
result %>%
  dplyr::arrange(Tag, StemID, Status) %>%
  dplyr::select(Tag, StemID, Status, status_tree)
#> # A tibble: 3,853 x 4
#>    Tag    StemID Status status_tree
#>    <chr>   <int> <chr>  <chr>      
#>  1 000002      1 alive  alive      
#>  2 000002      1 alive  alive      
#>  3 000004      1 alive  alive      
#>  4 000004      1 alive  alive      
#>  5 000006      7 alive  alive      
#>  6 000006      7 alive  alive      
#>  7 000007      1 alive  alive      
#>  8 000007      1 alive  alive      
#>  9 000008      1 alive  alive      
#> 10 000008      1 alive  alive      
#> # ... with 3,843 more rows
…
