Print all rows and/or columns of a tibble. — print.tbl • fgeo.tool
…
      n_extra
      Number of extra columns to print abbreviated information for,
if the width is too small for the entire tibble. If NULL, the
default, will print information about at most tibble.max_extra_cols
extra columns.

    Value

    Print output (and the main input invisibly).

    Examples

print(as_tibble(iris), n = 1)
#> # A tibble: 150 x 5
#>   Sepal.Length Sepal.Width Petal.Length Petal.Width Species
#>          <dbl>       <dbl>        <dbl>       <dbl> <fct>  
#> 1          5.1         3.5          1.4         0.2 setosa 
#> # ... with 149 more rows
…
print(fgeo.data::luquillo_tree5_random)
#> # A tibble: 1,000 x 19
#>    treeID stemID tag   StemTag sp    quadrat    gx    gy MeasureID CensusID
#>     <int>  <int> <chr> <chr>   <chr> <chr>   <dbl> <dbl>     <int>    <int>
#>  1    104    143 10009 10009   DACE~ 113      10.3  245.    439947        5
#>  2    119    158 1001~ 100104  MYRS~ 1021    183.   410.    466597        5
#>  3    180    225 1001~ 100174  CASA~ 921     165.   410.    466623        5
#>  4    602    736 1006~ 100649  GUAG~ 821     149.   414.    466727        5
#>  5    631    775 10069 10069   PREM~ 213      38.3  245.    439989        5
#>  6    647    793 1007~ 100708  SCHM~ 821     143.   411.    466743        5
#>  7   1086   1339 10122 10122   DRYG~ 413      68.9  253.    440021        5
#>  8   1144   1410 1012~ 101285  SCHM~ 920     161.   395.    466889        5
#>  9   1168   1438 10131 10131   DACE~ 413      70.6  252.    440031        5
#> 10   1380 114352 1015~ 149529  CASA~ 820     142.   386.    466957        5
#> # ... with 990 more rows, and 9 more variables: dbh <dbl>, pom <chr>,
#> #   hom <dbl>, ExactDate <date>, DFstatus <chr>, codes <chr>, nostems <dbl>,
#> #   status <chr>, date <dbl>
print(fgeo.data::luquillo_tree5_random, n_extra = 2)
#> # A tibble: 1,000 x 19
#>    treeID stemID tag   StemTag sp    quadrat    gx    gy MeasureID CensusID
#>     <int>  <int> <chr> <chr>   <chr> <chr>   <dbl> <dbl>     <int>    <int>
#>  1    104    143 10009 10009   DACE~ 113      10.3  245.    439947        5
#>  2    119    158 1001~ 100104  MYRS~ 1021    183.   410.    466597        5
#>  3    180    225 1001~ 100174  CASA~ 921     165.   410.    466623        5
#>  4    602    736 1006~ 100649  GUAG~ 821     149.   414.    466727        5
#>  5    631    775 10069 10069   PREM~ 213      38.3  245.    439989        5
#>  6    647    793 1007~ 100708  SCHM~ 821     143.   411.    466743        5
#>  7   1086   1339 10122 10122   DRYG~ 413      68.9  253.    440021        5
#>  8   1144   1410 1012~ 101285  SCHM~ 920     161.   395.    466889        5
#>  9   1168   1438 10131 10131   DACE~ 413      70.6  252.    440031        5
#> 10   1380 114352 1015~ 149529  CASA~ 820     142.   386.    466957        5
#> # ... with 990 more rows, and 9 more variables: dbh <dbl>, pom <chr>, ...
print(fgeo.data::luquillo_tree5_random, width = Inf)
#> # A tibble: 1,000 x 19
#>    treeID stemID tag    StemTag sp     quadrat    gx    gy MeasureID CensusID
#>     <int>  <int> <chr>  <chr>   <chr>  <chr>   <dbl> <dbl>     <int>    <int>
#>  1    104    143 10009  10009   DACEXC 113      10.3  245.    439947        5
#>  2    119    158 100104 100104  MYRSPL 1021    183.   410.    466597        5
#>  3    180    225 100171 100174  CASARB 921     165.   410.    466623        5
#>  4    602    736 100649 100649  GUAGUI 821     149.   414.    466727        5
#>  5    631    775 10069  10069   PREMON 213      38.3  245.    439989        5
#>  6    647    793 100708 100708  SCHMOR 821     143.   411.    466743        5
#>  7   1086   1339 10122  10122   DRYGLA 413      68.9  253.    440021        5
#>  8   1144   1410 101285 101285  SCHMOR 920     161.   395.    466889        5
#>  9   1168   1438 10131  10131   DACEXC 413      70.6  252.    440031        5
#> 10   1380 114352 101560 149529  CASARB 820     142.   386.    466957        5
#>      dbh pom     hom ExactDate  DFstatus     codes       nostems status  date
#>    <dbl> <chr> <dbl> <date>     <chr>        <chr>         <dbl> <chr>  <dbl>
#>  1 193   1.4    1.4  2011-11-02 alive        MAIN;A            1 A      18933
#>  2  40.4 1.25   1.26 2012-02-06 alive        MAIN;A            1 A      19029
#>  3  45   1.3    1.32 2012-02-03 alive        SPROUT;A          2 A      19026
#>  4  33   1.3    1.3  2012-02-01 alive        MAIN;A            1 A      19024
#>  5 140   1.25   1.24 2011-11-02 alive        MAIN;A            1 A      18933
#>  6 246   1.25   1.25 2012-01-31 alive        MAIN;A            1 A      19023
#>  7 176   1.45   1.45 2011-11-03 alive        MAIN;A            1 A      18934
#>  8  74   1.3    1.3  2012-02-07 alive        MAIN;A            1 A      19030
#>  9 604   1.3    1.31 2011-11-03 alive        MAIN;A            1 A      18934
#> 10  NA   <NA>  NA    2012-02-06 broken below SPROUT;LS;B       2 A      19029
#> # ... with 990 more rows
…
