Import multiple .rdata files from a directory into a dataframe. — rdata_df • fgeo.tool
…
    A dataframe.

    See also

    Other general functions to import data: dir_list,
  read_with, xlsheets_list

    Examples

path_dir <- tool_example("rdata")
dir(path_dir)
#> [1] "tree5.RData" "tree6.RData"

rdata_df(path_dir)
#> # A tibble: 2,000 x 19
#>    treeID stemID tag   StemTag sp    quadrat    gx    gy MeasureID CensusID
#>     <int>  <int> <chr> <chr>   <chr> <chr>   <dbl> <dbl>     <int>    <int>
#>  1    104    143 10009 10009   DACE~ 113      10.3  245.    439947        5
#>  2    119    158 1001~ 100104  MYRS~ 1021    183.   410.    466597        5
#>  3    180    225 1001~ 100174  CASA~ 921     165.   410.    466623        5
#>  4    602    736 1006~ 100649  GUAG~ 821     149.   414.    466727        5
#>  5    631    775 10069 10069   PREM~ 213      38.3  245.    439989        5
#>  6    647    793 1007~ 100708  SCHM~ 821     143.   411.    466743        5
#>  7   1086   1339 10122 10122   DRYG~ 413      68.9  253.    440021        5
#>  8   1144   1410 1012~ 101285  SCHM~ 920     161.   395.    466889        5
#>  9   1168   1438 10131 10131   DACE~ 413      70.6  252.    440031        5
#> 10   1380 114352 1015~ 149529  CASA~ 820     142.   386.    466957        5
#> # ... with 1,990 more rows, and 9 more variables: dbh <dbl>, pom <chr>,
#> #   hom <dbl>, ExactDate <date>, DFstatus <chr>, codes <chr>, nostems <dbl>,
#> #   status <chr>, date <dbl>

rdata_df(path_dir, match = "tree6")
#> # A tibble: 1,000 x 19
#>    treeID stemID tag   StemTag sp    quadrat    gx    gy MeasureID CensusID
#>     <int>  <int> <chr> <chr>   <chr> <chr>   <dbl> <dbl>     <int>    <int>
#>  1    104    143 10009 10009   DACE~ 113      10.3  245.    582850        6
#>  2    119    158 1001~ 100104  MYRS~ 1021    183.   410.    578696        6
#>  3    180    225 1001~ 100174  CASA~ 921     165.   410.    617049        6
#>  4    602    736 1006~ 100649  GUAG~ 821     149.   414.    614253        6
#>  5    631    775 10069 10069   PREM~ 213      38.3  245.    598429        6
#>  6    647    793 1007~ 100708  SCHM~ 821     143.   411.    614211        6
#>  7   1086   1339 10122 10122   DRYG~ 413      68.9  253.    603131        6
#>  8   1144   1410 1012~ 101285  SCHM~ 920     161.   395.    616923        6
#>  9   1168   1438 10131 10131   DACE~ 413      70.6  252.    603151        6
#> 10   1380   1702 1015~ 101560  CASA~ 820     142.   386.    614023        6
#> # ... with 990 more rows, and 9 more variables: dbh <dbl>, pom <chr>,
#> #   hom <dbl>, ExactDate <date>, DFstatus <chr>, codes <chr>, nostems <dbl>,
#> #   status <chr>, date <dbl>

dfm <- rdata_df(path_dir, match = "tree5|6", .id = "source")
dfm
#> # A tibble: 2,000 x 20
#>    source treeID stemID tag   StemTag sp    quadrat    gx    gy MeasureID
#>    <chr>   <int>  <int> <chr> <chr>   <chr> <chr>   <dbl> <dbl>     <int>
#>  1 tree5     104    143 10009 10009   DACE~ 113      10.3  245.    439947
#>  2 tree5     119    158 1001~ 100104  MYRS~ 1021    183.   410.    466597
#>  3 tree5     180    225 1001~ 100174  CASA~ 921     165.   410.    466623
#>  4 tree5     602    736 1006~ 100649  GUAG~ 821     149.   414.    466727
#>  5 tree5     631    775 10069 10069   PREM~ 213      38.3  245.    439989
#>  6 tree5     647    793 1007~ 100708  SCHM~ 821     143.   411.    466743
#>  7 tree5    1086   1339 10122 10122   DRYG~ 413      68.9  253.    440021
#>  8 tree5    1144   1410 1012~ 101285  SCHM~ 920     161.   395.    466889
#>  9 tree5    1168   1438 10131 10131   DACE~ 413      70.6  252.    440031
#> 10 tree5    1380 114352 1015~ 149529  CASA~ 820     142.   386.    466957
#> # ... with 1,990 more rows, and 10 more variables: CensusID <int>, dbh <dbl>,
#> #   pom <chr>, hom <dbl>, ExactDate <date>, DFstatus <chr>, codes <chr>,
#> #   nostems <dbl>, status <chr>, date <dbl>
…
