Read ViewFullTable and ViewTaxonomy files delivered by ForestGEO's database. — read_fgeo • fgeo.tool
…
    Value

    A dataframe (or tibble).

    See also

    readr::read_delim(), type_vft(), type_taxa().

Other functions to read text files delivered by ForestgGEO's database.: type_fgeo

    Examples

read_vft("http://bit.ly/fgeo-data-luquillo-vft-random")
#> # A tibble: 5,921 x 32
#>     DBHID PlotName PlotID Family      Genus     SpeciesName Mnemonic Subspecies
#>     <int> <chr>     <int> <chr>       <chr>     <chr>       <chr>    <chr>     
#>  1    143 luquillo      1 Burseraceae Dacryodes excelsa     DACEXC   <NA>      
#>  2 103518 luquillo      1 Burseraceae Dacryodes excelsa     DACEXC   <NA>      
#>  3 217487 luquillo      1 Burseraceae Dacryodes excelsa     DACEXC   <NA>      
#>  4 347333 luquillo      1 Burseraceae Dacryodes excelsa     DACEXC   <NA>      
#>  5 439947 luquillo      1 Burseraceae Dacryodes excelsa     DACEXC   <NA>      
#>  6 582850 luquillo      1 Burseraceae Dacryodes excelsa     DACEXC   <NA>      
#>  7    158 luquillo      1 Myrtaceae   Myrcia    splendens   MYRSPL   <NA>      
#>  8 103533 luquillo      1 Myrtaceae   Myrcia    splendens   MYRSPL   <NA>      
#>  9 217498 luquillo      1 Myrtaceae   Myrcia    splendens   MYRSPL   <NA>      
#> 10 384255 luquillo      1 Myrtaceae   Myrcia    splendens   MYRSPL   <NA>      
#> # ... with 5,911 more rows, and 24 more variables: SpeciesID <int>,
#> #   SubspeciesID <chr>, QuadratName <chr>, QuadratID <int>, PX <dbl>, PY <dbl>,
#> #   QX <dbl>, QY <dbl>, TreeID <int>, Tag <chr>, StemID <int>,
#> #   StemNumber <int>, StemTag <int>, PrimaryStem <chr>, CensusID <int>,
#> #   PlotCensusNumber <int>, DBH <dbl>, HOM <dbl>, ExactDate <date>, Date <int>,
#> #   ListOfTSM <chr>, HighHOM <int>, LargeStem <chr>, Status <chr>
read_vft("http://bit.ly/fgeo-data-luquillo-taxa")
#> Warning: The following named parsers don't match the column names: DBHID, PlotName, PlotID, QuadratName, QuadratID, PX, PY, QX, QY, TreeID, Tag, StemID, StemNumber, StemTag, PrimaryStem, CensusID, PlotCensusNumber, DBH, HOM, ExactDate, Date, ListOfTSM, HighHOM, LargeStem, Status
#> # A tibble: 163 x 21
#>    ViewID SpeciesID SubspeciesID Family      Mnemonic Genus   SpeciesName Rank 
#>     <int>     <int> <chr>        <chr>       <chr>    <chr>   <chr>       <chr>
#>  1      1        56 <NA>         Fabaceae    AESAME   Aeschy~ americana   <NA> 
#>  2      2        57 <NA>         Euphorbiac~ ALCFLO   Alchor~ floribunda  <NA> 
#>  3      3        58 <NA>         Euphorbiac~ ALCLAT   Alchor~ latifolia   <NA> 
#>  4      4        59 <NA>         Fabaceae-p~ ANDINE   Andira  inermis     <NA> 
#>  5      5        60 <NA>         Rubiaceae   ANTOBT   Stenos~ obtusifoli~ <NA> 
#>  6      6        61 <NA>         Myrsinaceae ARDGLA   Ardisia glauciflora <NA> 
#>  7      7        62 <NA>         Moraceae    ARTALT   Artoca~ altilis     <NA> 
#>  8      8        63 <NA>         Lauraceae   BEIPEN   Beilsc~ pendula     <NA> 
#>  9      9        64 <NA>         Solanaceae  BRUPOR   Brunfe~ portoricen~ <NA> 
#> 10     10        65 <NA>         Combretace~ BUCTET   Buchen~ tetraphylla <NA> 
#> # ... with 153 more rows, and 13 more variables: Subspecies <chr>,
#> #   Authority <chr>, IDLevel <chr>, subspMnemonic <chr>, subspAuthority <chr>,
#> #   FieldFamily <chr>, Lifeform <chr>, Description <chr>, wsg <dbl>,
#> #   wsglevel <chr>, ListOfOldNames <chr>, Specimens <chr>, Reference <chr>
…
