Combine spreadsheets from excel workbooks and output common data structures. — xl_sheets_to_output • fgeo.tool
…
# Confirm
path_file(dir_ls(output_dir, regexp = "new_stem.*csv$"))
#> new_stem_1.csv new_stem_2.csv 

# Also possible to output excel and a list of dataframe. See next section.

# FIRST CENSUS
input_dir <- dirname(example_path("first_census/census.xlsx"))
# As a reminder you'll get a warning of missing sheets
# Output list of dataframes (one per input workbook -- here only one)
xl_sheets_to_df(input_dir, first_census = TRUE)
#> Warning: `.x` has no dataframe new_secondary_stems
#> Warning: `.x` has no dataframe recruits
#> $census.xlsx
#> # A tibble: 49 x 15
#>    submission_id quadrat tag   stem_tag species species_code dbh   status codes
#>    <chr>         <chr>   <chr> <chr>    <chr>   <chr>        <chr> <chr>  <chr>
#>  1 c01b37d5-2c3~ 0816    007   1        Americ~ TILIAM       51.2  LI     M    
#>  2 efd8e991-2e3~ 0916    004   1        Americ~ TILIAM       31.6  LI     M    
#>  3 efd8e991-2e3~ 0916    007   1        Ironwo~ OSTRVI       10.2  LI     M    
#>  4 efd8e991-2e3~ 0916    008   1        Ironwo~ OSTRVI       2.7   LI     M;L  
#>  5 efd8e991-2e3~ 0916    010   1        Hackbe~ CELTOC       25.9  LI     M    
#>  6 efd8e991-2e3~ 0916    012   1        Bur Oak QUERMA       35.2  LI     M;FS~
#>  7 7997596a-c94~ 1017    001   1        Americ~ TILIAM       65.3  LI     M;FS~
#>  8 572ddae1-d02~ 0816    002   1        Hackbe~ CELTOC       45.1  LI     M    
#>  9 c01b37d5-2c3~ 0816    007   2        TILIAM  <NA>         42.4  LI     S;L  
#> 10 c01b37d5-2c3~ 0816    007   3        TILIAM  <NA>         39.8  LI     S    
#> # ... with 39 more rows, and 6 more variables: notes <chr>, pom <chr>,
#> #   sheet <chr>, section_id <chr>, unique_stem <chr>, date <chr>
…
